{
    "False_cross_entropy_Adam_RegularizationL1_Default": [
        1,
        1,
        1,
        0,
        0,
        0,
        0,
        0,
        0,
        1,
        1,
        0,
        1,
        1,
        0,
        1,
        0,
        1,
        0,
        1
    ],
    "False_cross_entropy_Adam_RegularizationL1_Random": [
        1,
        0,
        1,
        1,
        1,
        1,
        0,
        1,
        1,
        0,
        0,
        0,
        1,
        1,
        0,
        0,
        1,
        1,
        0,
        1
    ],
    "False_cross_entropy_Adam_RegularizationL1_Zeros": [
        1,
        1,
        1,
        0,
        0,
        0,
        0,
        0,
        0,
        1,
        1,
        0,
        1,
        1,
        0,
        1,
        0,
        1,
        0,
        1
    ],
    "False_cross_entropy_Adam_RegularizationL2_Default": [
        1,
        1,
        1,
        0,
        0,
        0,
        0,
        0,
        0,
        1,
        1,
        0,
        1,
        1,
        0,
        1,
        0,
        1,
        0,
        1
    ],
    "False_cross_entropy_Adam_RegularizationL2_Random": [
        1,
        0,
        1,
        1,
        1,
        1,
        0,
        1,
        1,
        0,
        0,
        0,
        1,
        1,
        0,
        0,
        1,
        1,
        0,
        1
    ],
    "False_cross_entropy_Adam_RegularizationL2_Zeros": [
        1,
        1,
        1,
        0,
        0,
        0,
        0,
        0,
        0,
        1,
        1,
        0,
        1,
        1,
        0,
        1,
        0,
        1,
        0,
        1
    ],
    "False_cross_entropy_Adam_RegularizationNone_Default": [
        1,
        1,
        1,
        0,
        0,
        0,
        0,
        0,
        0,
        1,
        1,
        0,
        1,
        1,
        0,
        1,
        0,
        1,
        0,
        1
    ],
    "False_cross_entropy_Adam_RegularizationNone_Random": [
        1,
        0,
        1,
        1,
        1,
        1,
        0,
        1,
        1,
        0,
        0,
        0,
        1,
        1,
        0,
        0,
        1,
        1,
        0,
        1
    ],
    "False_cross_entropy_Adam_RegularizationNone_Zeros": [
        1,
        1,
        1,
        0,
        0,
        0,
        0,
        0,
        0,
        1,
        1,
        0,
        1,
        1,
        0,
        1,
        0,
        1,
        0,
        1
    ],
    "False_cross_entropy_GradientDescent_RegularizationL1_Default": [
        1,
        0,
        1,
        0,
        0,
        0,
        0,
        0,
        1,
        1,
        0,
        0,
        1,
        1,
        0,
        1,
        0,
        1,
        0,
        1
    ],
    "False_cross_entropy_GradientDescent_RegularizationL1_Random": [
        1,
        0,
        1,
        0,
        0,
        0,
        0,
        0,
        1,
        0,
        0,
        0,
        1,
        1,
        0,
        0,
        1,
        1,
        0,
        1
    ],
    "False_cross_entropy_GradientDescent_RegularizationL1_Zeros": [
        1,
        0,
        1,
        0,
        0,
        0,
        0,
        0,
        1,
        1,
        0,
        0,
        1,
        1,
        0,
        1,
        0,
        1,
        0,
        1
    ],
    "False_cross_entropy_GradientDescent_RegularizationL2_Default": [
        1,
        0,
        1,
        0,
        0,
        0,
        0,
        0,
        1,
        1,
        0,
        0,
        1,
        1,
        0,
        1,
        0,
        1,
        0,
        1
    ],
    "False_cross_entropy_GradientDescent_RegularizationL2_Random": [
        1,
        0,
        1,
        0,
        0,
        0,
        0,
        0,
        1,
        0,
        0,
        0,
        1,
        1,
        0,
        0,
        1,
        1,
        0,
        1
    ],
    "False_cross_entropy_GradientDescent_RegularizationL2_Zeros": [
        1,
        0,
        1,
        0,
        0,
        0,
        0,
        0,
        1,
        1,
        0,
        0,
        1,
        1,
        0,
        1,
        0,
        1,
        0,
        1
    ],
    "False_cross_entropy_GradientDescent_RegularizationNone_Default": [
        1,
        0,
        1,
        0,
        0,
        0,
        0,
        0,
        1,
        1,
        0,
        0,
        1,
        1,
        0,
        1,
        0,
        1,
        0,
        1
    ],
    "False_cross_entropy_GradientDescent_RegularizationNone_Random": [
        1,
        0,
        1,
        0,
        0,
        0,
        0,
        0,
        1,
        0,
        0,
        0,
        1,
        1,
        0,
        0,
        1,
        1,
        0,
        1
    ],
    "False_cross_entropy_GradientDescent_RegularizationNone_Zeros": [
        1,
        0,
        1,
        0,
        0,
        0,
        0,
        0,
        1,
        1,
        0,
        0,
        1,
        1,
        0,
        1,
        0,
        1,
        0,
        1
    ],
    "False_cross_entropy_Nadam_RegularizationL1_Default": [
        1,
        1,
        1,
        0,
        0,
        0,
        0,
        0,
        1,
        1,
        1,
        0,
        1,
        1,
        0,
        1,
        0,
        1,
        0,
        1
    ],
    "False_cross_entropy_Nadam_RegularizationL1_Random": [
        1,
        0,
        1,
        1,
        1,
        1,
        0,
        1,
        1,
        0,
        0,
        0,
        1,
        1,
        0,
        0,
        1,
        1,
        0,
        1
    ],
    "False_cross_entropy_Nadam_RegularizationL1_Zeros": [
        1,
        1,
        1,
        0,
        0,
        0,
        0,
        0,
        1,
        1,
        1,
        0,
        1,
        1,
        0,
        1,
        0,
        1,
        0,
        1
    ],
    "False_cross_entropy_Nadam_RegularizationL2_Default": [
        1,
        1,
        1,
        0,
        0,
        0,
        0,
        0,
        0,
        1,
        1,
        0,
        1,
        1,
        0,
        1,
        0,
        1,
        0,
        1
    ],
    "False_cross_entropy_Nadam_RegularizationL2_Random": [
        1,
        0,
        1,
        1,
        1,
        1,
        0,
        1,
        1,
        0,
        0,
        0,
        1,
        1,
        0,
        0,
        1,
        1,
        0,
        1
    ],
    "False_cross_entropy_Nadam_RegularizationL2_Zeros": [
        1,
        1,
        1,
        0,
        0,
        0,
        0,
        0,
        0,
        1,
        1,
        0,
        1,
        1,
        0,
        1,
        0,
        1,
        0,
        1
    ],
    "False_cross_entropy_Nadam_RegularizationNone_Default": [
        1,
        1,
        1,
        0,
        0,
        0,
        0,
        0,
        0,
        1,
        1,
        0,
        1,
        1,
        0,
        1,
        0,
        1,
        0,
        1
    ],
    "False_cross_entropy_Nadam_RegularizationNone_Random": [
        1,
        0,
        1,
        1,
        1,
        1,
        0,
        1,
        1,
        0,
        0,
        0,
        1,
        1,
        0,
        0,
        1,
        1,
        0,
        1
    ],
    "False_cross_entropy_Nadam_RegularizationNone_Zeros": [
        1,
        1,
        1,
        0,
        0,
        0,
        0,
        0,
        0,
        1,
        1,
        0,
        1,
        1,
        0,
        1,
        0,
        1,
        0,
        1
    ],
    "False_cross_entropy_RMSprop_RegularizationL1_Default": [
        1,
        1,
        1,
        0,
        0,
        0,
        0,
        0,
        1,
        1,
        1,
        0,
        1,
        1,
        0,
        1,
        0,
        1,
        0,
        1
    ],
    "False_cross_entropy_RMSprop_RegularizationL1_Random": [
        1,
        0,
        1,
        1,
        0,
        1,
        0,
        1,
        1,
        0,
        0,
        0,
        1,
        1,
        0,
        0,
        0,
        1,
        0,
        1
    ],
    "False_cross_entropy_RMSprop_RegularizationL1_Zeros": [
        1,
        1,
        1,
        0,
        0,
        0,
        0,
        0,
        1,
        1,
        1,
        0,
        1,
        1,
        0,
        1,
        0,
        1,
        0,
        1
    ],
    "False_cross_entropy_RMSprop_RegularizationL2_Default": [
        1,
        1,
        1,
        0,
        0,
        0,
        0,
        0,
        1,
        1,
        1,
        0,
        1,
        1,
        0,
        1,
        0,
        1,
        0,
        1
    ],
    "False_cross_entropy_RMSprop_RegularizationL2_Random": [
        1,
        0,
        1,
        1,
        0,
        1,
        0,
        1,
        1,
        0,
        0,
        0,
        1,
        1,
        0,
        0,
        0,
        1,
        0,
        1
    ],
    "False_cross_entropy_RMSprop_RegularizationL2_Zeros": [
        1,
        1,
        1,
        0,
        0,
        0,
        0,
        0,
        1,
        1,
        1,
        0,
        1,
        1,
        0,
        1,
        0,
        1,
        0,
        1
    ],
    "False_cross_entropy_RMSprop_RegularizationNone_Default": [
        1,
        1,
        1,
        0,
        0,
        0,
        0,
        0,
        1,
        1,
        1,
        0,
        1,
        1,
        0,
        1,
        0,
        1,
        0,
        1
    ],
    "False_cross_entropy_RMSprop_RegularizationNone_Random": [
        1,
        0,
        1,
        1,
        0,
        1,
        0,
        1,
        1,
        0,
        0,
        0,
        1,
        1,
        0,
        0,
        0,
        1,
        0,
        1
    ],
    "False_cross_entropy_RMSprop_RegularizationNone_Zeros": [
        1,
        1,
        1,
        0,
        0,
        0,
        0,
        0,
        1,
        1,
        1,
        0,
        1,
        1,
        0,
        1,
        0,
        1,
        0,
        1
    ],
    "False_mean_squared_error_Adam_RegularizationL1_Default": [
        1,
        1,
        1,
        0,
        0,
        0,
        0,
        0,
        0,
        1,
        1,
        0,
        1,
        1,
        0,
        1,
        0,
        1,
        0,
        1
    ],
    "False_mean_squared_error_Adam_RegularizationL1_Random": [
        1,
        0,
        1,
        0,
        0,
        0,
        0,
        0,
        0,
        0,
        0,
        0,
        1,
        1,
        0,
        0,
        0,
        1,
        0,
        1
    ],
    "False_mean_squared_error_Adam_RegularizationL1_Zeros": [
        1,
        1,
        1,
        0,
        0,
        0,
        0,
        0,
        0,
        1,
        1,
        0,
        1,
        1,
        0,
        1,
        0,
        1,
        0,
        1
    ],
    "False_mean_squared_error_Adam_RegularizationL2_Default": [
        1,
        1,
        1,
        0,
        0,
        0,
        0,
        0,
        0,
        1,
        1,
        0,
        1,
        1,
        0,
        1,
        0,
        1,
        0,
        1
    ],
    "False_mean_squared_error_Adam_RegularizationL2_Random": [
        1,
        0,
        1,
        0,
        0,
        0,
        0,
        0,
        0,
        0,
        0,
        0,
        1,
        1,
        0,
        0,
        0,
        1,
        0,
        1
    ],
    "False_mean_squared_error_Adam_RegularizationL2_Zeros": [
        1,
        1,
        1,
        0,
        0,
        0,
        0,
        0,
        0,
        1,
        1,
        0,
        1,
        1,
        0,
        1,
        0,
        1,
        0,
        1
    ],
    "False_mean_squared_error_Adam_RegularizationNone_Default": [
        1,
        1,
        1,
        0,
        0,
        0,
        0,
        0,
        0,
        1,
        1,
        0,
        1,
        1,
        0,
        1,
        0,
        1,
        0,
        1
    ],
    "False_mean_squared_error_Adam_RegularizationNone_Random": [
        1,
        0,
        1,
        0,
        0,
        0,
        0,
        0,
        0,
        0,
        0,
        0,
        1,
        1,
        0,
        0,
        0,
        1,
        0,
        1
    ],
    "False_mean_squared_error_Adam_RegularizationNone_Zeros": [
        1,
        1,
        1,
        0,
        0,
        0,
        0,
        0,
        0,
        1,
        1,
        0,
        1,
        1,
        0,
        1,
        0,
        1,
        0,
        1
    ],
    "False_mean_squared_error_GradientDescent_RegularizationL1_Default": [
        1,
        0,
        1,
        0,
        0,
        0,
        0,
        0,
        1,
        1,
        0,
        0,
        1,
        1,
        0,
        1,
        0,
        1,
        0,
        1
    ],
    "False_mean_squared_error_GradientDescent_RegularizationL1_Random": [
        1,
        0,
        1,
        0,
        0,
        0,
        0,
        0,
        1,
        0,
        0,
        0,
        1,
        1,
        0,
        0,
        0,
        1,
        0,
        1
    ],
    "False_mean_squared_error_GradientDescent_RegularizationL1_Zeros": [
        1,
        0,
        1,
        0,
        0,
        0,
        0,
        0,
        1,
        1,
        0,
        0,
        1,
        1,
        0,
        1,
        0,
        1,
        0,
        1
    ],
    "False_mean_squared_error_GradientDescent_RegularizationL2_Default": [
        1,
        0,
        1,
        0,
        0,
        0,
        0,
        0,
        1,
        1,
        0,
        0,
        1,
        1,
        0,
        1,
        0,
        1,
        0,
        1
    ],
    "False_mean_squared_error_GradientDescent_RegularizationL2_Random": [
        1,
        0,
        1,
        0,
        0,
        0,
        0,
        0,
        1,
        0,
        0,
        0,
        1,
        1,
        0,
        0,
        0,
        1,
        0,
        1
    ],
    "False_mean_squared_error_GradientDescent_RegularizationL2_Zeros": [
        1,
        0,
        1,
        0,
        0,
        0,
        0,
        0,
        1,
        1,
        0,
        0,
        1,
        1,
        0,
        1,
        0,
        1,
        0,
        1
    ],
    "False_mean_squared_error_GradientDescent_RegularizationNone_Default": [
        1,
        0,
        1,
        0,
        0,
        0,
        0,
        0,
        1,
        1,
        0,
        0,
        1,
        1,
        0,
        1,
        0,
        1,
        0,
        1
    ],
    "False_mean_squared_error_GradientDescent_RegularizationNone_Random": [
        1,
        0,
        1,
        0,
        0,
        0,
        0,
        0,
        1,
        0,
        0,
        0,
        1,
        1,
        0,
        0,
        0,
        1,
        0,
        1
    ],
    "False_mean_squared_error_GradientDescent_RegularizationNone_Zeros": [
        1,
        0,
        1,
        0,
        0,
        0,
        0,
        0,
        1,
        1,
        0,
        0,
        1,
        1,
        0,
        1,
        0,
        1,
        0,
        1
    ],
    "False_mean_squared_error_Nadam_RegularizationL1_Default": [
        1,
        1,
        1,
        0,
        0,
        0,
        0,
        0,
        1,
        1,
        1,
        0,
        1,
        1,
        0,
        1,
        0,
        1,
        0,
        1
    ],
    "False_mean_squared_error_Nadam_RegularizationL1_Random": [
        1,
        0,
        1,
        0,
        0,
        0,
        0,
        0,
        0,
        0,
        0,
        0,
        1,
        1,
        0,
        0,
        0,
        1,
        0,
        1
    ],
    "False_mean_squared_error_Nadam_RegularizationL1_Zeros": [
        1,
        1,
        1,
        0,
        0,
        0,
        0,
        0,
        1,
        1,
        1,
        0,
        1,
        1,
        0,
        1,
        0,
        1,
        0,
        1
    ],
    "False_mean_squared_error_Nadam_RegularizationL2_Default": [
        1,
        1,
        1,
        0,
        0,
        0,
        0,
        0,
        0,
        1,
        1,
        0,
        1,
        1,
        0,
        1,
        0,
        1,
        0,
        1
    ],
    "False_mean_squared_error_Nadam_RegularizationL2_Random": [
        1,
        0,
        1,
        0,
        0,
        0,
        0,
        0,
        0,
        0,
        0,
        0,
        1,
        1,
        0,
        0,
        0,
        1,
        0,
        1
    ],
    "False_mean_squared_error_Nadam_RegularizationL2_Zeros": [
        1,
        1,
        1,
        0,
        0,
        0,
        0,
        0,
        0,
        1,
        1,
        0,
        1,
        1,
        0,
        1,
        0,
        1,
        0,
        1
    ],
    "False_mean_squared_error_Nadam_RegularizationNone_Default": [
        1,
        1,
        1,
        0,
        0,
        0,
        0,
        0,
        0,
        1,
        1,
        0,
        1,
        1,
        0,
        1,
        0,
        1,
        0,
        1
    ],
    "False_mean_squared_error_Nadam_RegularizationNone_Random": [
        1,
        0,
        1,
        0,
        0,
        0,
        0,
        0,
        0,
        0,
        0,
        0,
        1,
        1,
        0,
        0,
        0,
        1,
        0,
        1
    ],
    "False_mean_squared_error_Nadam_RegularizationNone_Zeros": [
        1,
        1,
        1,
        0,
        0,
        0,
        0,
        0,
        0,
        1,
        1,
        0,
        1,
        1,
        0,
        1,
        0,
        1,
        0,
        1
    ],
    "False_mean_squared_error_RMSprop_RegularizationL1_Default": [
        1,
        1,
        1,
        0,
        0,
        0,
        0,
        0,
        1,
        1,
        0,
        0,
        1,
        1,
        0,
        1,
        0,
        1,
        0,
        1
    ],
    "False_mean_squared_error_RMSprop_RegularizationL1_Random": [
        1,
        0,
        1,
        0,
        0,
        0,
        0,
        0,
        1,
        0,
        0,
        0,
        1,
        1,
        0,
        0,
        0,
        1,
        0,
        1
    ],
    "False_mean_squared_error_RMSprop_RegularizationL1_Zeros": [
        1,
        1,
        1,
        0,
        0,
        0,
        0,
        0,
        1,
        1,
        0,
        0,
        1,
        1,
        0,
        1,
        0,
        1,
        0,
        1
    ],
    "False_mean_squared_error_RMSprop_RegularizationL2_Default": [
        1,
        1,
        1,
        0,
        0,
        0,
        0,
        0,
        1,
        1,
        1,
        0,
        1,
        1,
        0,
        1,
        0,
        1,
        0,
        1
    ],
    "False_mean_squared_error_RMSprop_RegularizationL2_Random": [
        1,
        0,
        1,
        0,
        0,
        0,
        0,
        0,
        1,
        0,
        0,
        0,
        1,
        1,
        0,
        0,
        0,
        1,
        0,
        1
    ],
    "False_mean_squared_error_RMSprop_RegularizationL2_Zeros": [
        1,
        1,
        1,
        0,
        0,
        0,
        0,
        0,
        1,
        1,
        1,
        0,
        1,
        1,
        0,
        1,
        0,
        1,
        0,
        1
    ],
    "False_mean_squared_error_RMSprop_RegularizationNone_Default": [
        1,
        1,
        1,
        0,
        0,
        0,
        0,
        0,
        1,
        1,
        1,
        0,
        1,
        1,
        0,
        1,
        0,
        1,
        0,
        1
    ],
    "False_mean_squared_error_RMSprop_RegularizationNone_Random": [
        1,
        0,
        1,
        0,
        0,
        0,
        0,
        0,
        1,
        0,
        0,
        0,
        1,
        1,
        0,
        0,
        0,
        1,
        0,
        1
    ],
    "False_mean_squared_error_RMSprop_RegularizationNone_Zeros": [
        1,
        1,
        1,
        0,
        0,
        0,
        0,
        0,
        1,
        1,
        1,
        0,
        1,
        1,
        0,
        1,
        0,
        1,
        0,
        1
    ],
    "False_scaled_mean_squared_error_Adam_RegularizationL1_Default": [
        1,
        1,
        1,
        0,
        0,
        0,
        0,
        0,
        0,
        1,
        1,
        0,
        1,
        1,
        0,
        1,
        0,
        1,
        0,
        1
    ],
    "False_scaled_mean_squared_error_Adam_RegularizationL1_Random": [
        1,
        0,
        1,
        1,
        0,
        1,
        0,
        1,
        0,
        0,
        0,
        0,
        1,
        1,
        0,
        0,
        0,
        1,
        0,
        1
    ],
    "False_scaled_mean_squared_error_Adam_RegularizationL1_Zeros": [
        1,
        1,
        1,
        0,
        0,
        0,
        0,
        0,
        0,
        1,
        1,
        0,
        1,
        1,
        0,
        1,
        0,
        1,
        0,
        1
    ],
    "False_scaled_mean_squared_error_Adam_RegularizationL2_Default": [
        1,
        1,
        1,
        0,
        0,
        0,
        0,
        0,
        0,
        1,
        1,
        0,
        1,
        1,
        0,
        1,
        0,
        1,
        0,
        1
    ],
    "False_scaled_mean_squared_error_Adam_RegularizationL2_Random": [
        1,
        0,
        1,
        1,
        0,
        1,
        0,
        1,
        0,
        0,
        0,
        0,
        1,
        1,
        0,
        0,
        0,
        1,
        0,
        1
    ],
    "False_scaled_mean_squared_error_Adam_RegularizationL2_Zeros": [
        1,
        1,
        1,
        0,
        0,
        0,
        0,
        0,
        0,
        1,
        1,
        0,
        1,
        1,
        0,
        1,
        0,
        1,
        0,
        1
    ],
    "False_scaled_mean_squared_error_Adam_RegularizationNone_Default": [
        1,
        1,
        1,
        0,
        0,
        0,
        0,
        0,
        0,
        1,
        1,
        0,
        1,
        1,
        0,
        1,
        0,
        1,
        0,
        1
    ],
    "False_scaled_mean_squared_error_Adam_RegularizationNone_Random": [
        1,
        0,
        1,
        1,
        0,
        1,
        0,
        1,
        0,
        0,
        0,
        0,
        1,
        1,
        0,
        0,
        0,
        1,
        0,
        1
    ],
    "False_scaled_mean_squared_error_Adam_RegularizationNone_Zeros": [
        1,
        1,
        1,
        0,
        0,
        0,
        0,
        0,
        0,
        1,
        1,
        0,
        1,
        1,
        0,
        1,
        0,
        1,
        0,
        1
    ],
    "False_scaled_mean_squared_error_GradientDescent_RegularizationL1_Default": [
        1,
        0,
        1,
        0,
        0,
        0,
        0,
        0,
        1,
        1,
        0,
        0,
        1,
        1,
        0,
        1,
        0,
        1,
        0,
        1
    ],
    "False_scaled_mean_squared_error_GradientDescent_RegularizationL1_Random": [
        1,
        0,
        1,
        1,
        0,
        1,
        0,
        0,
        1,
        0,
        0,
        0,
        1,
        1,
        0,
        0,
        1,
        1,
        0,
        1
    ],
    "False_scaled_mean_squared_error_GradientDescent_RegularizationL1_Zeros": [
        1,
        0,
        1,
        0,
        0,
        0,
        0,
        0,
        1,
        1,
        0,
        0,
        1,
        1,
        0,
        1,
        0,
        1,
        0,
        1
    ],
    "False_scaled_mean_squared_error_GradientDescent_RegularizationL2_Default": [
        1,
        0,
        1,
        0,
        0,
        0,
        0,
        0,
        1,
        1,
        0,
        0,
        1,
        1,
        0,
        1,
        0,
        1,
        0,
        1
    ],
    "False_scaled_mean_squared_error_GradientDescent_RegularizationL2_Random": [
        1,
        0,
        1,
        1,
        0,
        1,
        0,
        0,
        1,
        0,
        0,
        0,
        1,
        1,
        0,
        0,
        1,
        1,
        0,
        1
    ],
    "False_scaled_mean_squared_error_GradientDescent_RegularizationL2_Zeros": [
        1,
        0,
        1,
        0,
        0,
        0,
        0,
        0,
        1,
        1,
        0,
        0,
        1,
        1,
        0,
        1,
        0,
        1,
        0,
        1
    ],
    "False_scaled_mean_squared_error_GradientDescent_RegularizationNone_Default": [
        1,
        0,
        1,
        0,
        0,
        0,
        0,
        0,
        1,
        1,
        0,
        0,
        1,
        1,
        0,
        1,
        0,
        1,
        0,
        1
    ],
    "False_scaled_mean_squared_error_GradientDescent_RegularizationNone_Random": [
        1,
        0,
        1,
        1,
        0,
        1,
        0,
        0,
        1,
        0,
        0,
        0,
        1,
        1,
        0,
        0,
        1,
        1,
        0,
        1
    ],
    "False_scaled_mean_squared_error_GradientDescent_RegularizationNone_Zeros": [
        1,
        0,
        1,
        0,
        0,
        0,
        0,
        0,
        1,
        1,
        0,
        0,
        1,
        1,
        0,
        1,
        0,
        1,
        0,
        1
    ],
    "False_scaled_mean_squared_error_Nadam_RegularizationL1_Default": [
        1,
        1,
        1,
        0,
        0,
        0,
        0,
        0,
        1,
        1,
        1,
        0,
        1,
        1,
        0,
        1,
        0,
        1,
        0,
        1
    ],
    "False_scaled_mean_squared_error_Nadam_RegularizationL1_Random": [
        1,
        0,
        1,
        1,
        0,
        1,
        0,
        1,
        0,
        0,
        0,
        0,
        1,
        1,
        0,
        0,
        0,
        1,
        0,
        1
    ],
    "False_scaled_mean_squared_error_Nadam_RegularizationL1_Zeros": [
        1,
        1,
        1,
        0,
        0,
        0,
        0,
        0,
        1,
        1,
        1,
        0,
        1,
        1,
        0,
        1,
        0,
        1,
        0,
        1
    ],
    "False_scaled_mean_squared_error_Nadam_RegularizationL2_Default": [
        1,
        1,
        1,
        0,
        0,
        0,
        0,
        0,
        0,
        1,
        1,
        0,
        1,
        1,
        0,
        1,
        0,
        1,
        0,
        1
    ],
    "False_scaled_mean_squared_error_Nadam_RegularizationL2_Random": [
        1,
        0,
        1,
        1,
        0,
        1,
        0,
        1,
        0,
        0,
        0,
        0,
        1,
        1,
        0,
        0,
        0,
        1,
        0,
        1
    ],
    "False_scaled_mean_squared_error_Nadam_RegularizationL2_Zeros": [
        1,
        1,
        1,
        0,
        0,
        0,
        0,
        0,
        0,
        1,
        1,
        0,
        1,
        1,
        0,
        1,
        0,
        1,
        0,
        1
    ],
    "False_scaled_mean_squared_error_Nadam_RegularizationNone_Default": [
        1,
        1,
        1,
        0,
        0,
        0,
        0,
        0,
        0,
        1,
        1,
        0,
        1,
        1,
        0,
        1,
        0,
        1,
        0,
        1
    ],
    "False_scaled_mean_squared_error_Nadam_RegularizationNone_Random": [
        1,
        0,
        1,
        1,
        0,
        1,
        0,
        1,
        0,
        0,
        0,
        0,
        1,
        1,
        0,
        0,
        0,
        1,
        0,
        1
    ],
    "False_scaled_mean_squared_error_Nadam_RegularizationNone_Zeros": [
        1,
        1,
        1,
        0,
        0,
        0,
        0,
        0,
        0,
        1,
        1,
        0,
        1,
        1,
        0,
        1,
        0,
        1,
        0,
        1
    ],
    "False_scaled_mean_squared_error_RMSprop_RegularizationL1_Default": [
        1,
        1,
        1,
        0,
        0,
        0,
        0,
        0,
        1,
        1,
        0,
        0,
        1,
        1,
        0,
        1,
        0,
        1,
        0,
        1
    ],
    "False_scaled_mean_squared_error_RMSprop_RegularizationL1_Random": [
        1,
        0,
        1,
        1,
        0,
        1,
        0,
        1,
        1,
        0,
        0,
        0,
        1,
        1,
        0,
        0,
        0,
        1,
        0,
        1
    ],
    "False_scaled_mean_squared_error_RMSprop_RegularizationL1_Zeros": [
        1,
        1,
        1,
        0,
        0,
        0,
        0,
        0,
        1,
        1,
        0,
        0,
        1,
        1,
        0,
        1,
        0,
        1,
        0,
        1
    ],
    "False_scaled_mean_squared_error_RMSprop_RegularizationL2_Default": [
        1,
        1,
        1,
        0,
        0,
        0,
        0,
        0,
        1,
        1,
        1,
        0,
        1,
        1,
        0,
        1,
        0,
        1,
        0,
        1
    ],
    "False_scaled_mean_squared_error_RMSprop_RegularizationL2_Random": [
        1,
        0,
        1,
        1,
        0,
        1,
        0,
        1,
        1,
        0,
        0,
        0,
        1,
        1,
        0,
        0,
        0,
        1,
        0,
        1
    ],
    "False_scaled_mean_squared_error_RMSprop_RegularizationL2_Zeros": [
        1,
        1,
        1,
        0,
        0,
        0,
        0,
        0,
        1,
        1,
        1,
        0,
        1,
        1,
        0,
        1,
        0,
        1,
        0,
        1
    ],
    "False_scaled_mean_squared_error_RMSprop_RegularizationNone_Default": [
        1,
        1,
        1,
        0,
        0,
        0,
        0,
        0,
        1,
        1,
        1,
        0,
        1,
        1,
        0,
        1,
        0,
        1,
        0,
        1
    ],
    "False_scaled_mean_squared_error_RMSprop_RegularizationNone_Random": [
        1,
        0,
        1,
        1,
        0,
        1,
        0,
        1,
        1,
        0,
        0,
        0,
        1,
        1,
        0,
        0,
        0,
        1,
        0,
        1
    ],
    "False_scaled_mean_squared_error_RMSprop_RegularizationNone_Zeros": [
        1,
        1,
        1,
        0,
        0,
        0,
        0,
        0,
        1,
        1,
        1,
        0,
        1,
        1,
        0,
        1,
        0,
        1,
        0,
        1
    ],
    "True_cross_entropy_Adam_RegularizationL1_Default": [
        1,
        1,
        1,
        0,
        0,
        0,
        0,
        0,
        0,
        1,
        1,
        0,
        1,
        1,
        0,
        1,
        0,
        1,
        0,
        1
    ],
    "True_cross_entropy_Adam_RegularizationL1_Random": [
        1,
        0,
        0,
        0,
        0,
        0,
        1,
        1,
        0,
        0,
        0,
        0,
        1,
        0,
        1,
        1,
        1,
        1,
        1,
        1
    ],
    "True_cross_entropy_Adam_RegularizationL1_Zeros": [
        1,
        1,
        1,
        0,
        0,
        0,
        0,
        0,
        0,
        1,
        1,
        0,
        1,
        1,
        0,
        1,
        0,
        1,
        0,
        1
    ],
    "True_cross_entropy_Adam_RegularizationL2_Default": [
        1,
        1,
        1,
        0,
        0,
        0,
        0,
        0,
        0,
        1,
        1,
        0,
        1,
        1,
        0,
        1,
        0,
        1,
        0,
        1
    ],
    "True_cross_entropy_Adam_RegularizationL2_Random": [
        1,
        0,
        0,
        0,
        0,
        0,
        1,
        1,
        0,
        0,
        0,
        0,
        1,
        0,
        1,
        1,
        1,
        1,
        1,
        1
    ],
    "True_cross_entropy_Adam_RegularizationL2_Zeros": [
        1,
        1,
        1,
        0,
        0,
        0,
        0,
        0,
        0,
        1,
        1,
        0,
        1,
        1,
        0,
        1,
        0,
        1,
        0,
        1
    ],
    "True_cross_entropy_Adam_RegularizationNone_Default": [
        1,
        1,
        1,
        0,
        0,
        0,
        0,
        0,
        0,
        1,
        1,
        0,
        1,
        1,
        0,
        1,
        0,
        1,
        0,
        1
    ],
    "True_cross_entropy_Adam_RegularizationNone_Random": [
        1,
        0,
        0,
        0,
        0,
        0,
        1,
        1,
        0,
        0,
        0,
        0,
        1,
        0,
        1,
        1,
        1,
        1,
        1,
        1
    ],
    "True_cross_entropy_Adam_RegularizationNone_Zeros": [
        1,
        1,
        1,
        0,
        0,
        0,
        0,
        0,
        0,
        1,
        1,
        0,
        1,
        1,
        0,
        1,
        0,
        1,
        0,
        1
    ],
    "True_cross_entropy_GradientDescent_RegularizationL1_Default": [
        1,
        0,
        1,
        0,
        0,
        0,
        0,
        0,
        1,
        1,
        0,
        0,
        1,
        1,
        0,
        1,
        0,
        1,
        0,
        1
    ],
    "True_cross_entropy_GradientDescent_RegularizationL1_Random": [
        1,
        0,
        1,
        0,
        0,
        0,
        0,
        0,
        0,
        1,
        0,
        0,
        1,
        1,
        0,
        1,
        0,
        1,
        0,
        1
    ],
    "True_cross_entropy_GradientDescent_RegularizationL1_Zeros": [
        1,
        0,
        1,
        0,
        0,
        0,
        0,
        0,
        1,
        1,
        0,
        0,
        1,
        1,
        0,
        1,
        0,
        1,
        0,
        1
    ],
    "True_cross_entropy_GradientDescent_RegularizationL2_Default": [
        1,
        0,
        1,
        0,
        0,
        0,
        0,
        0,
        1,
        1,
        0,
        0,
        1,
        1,
        0,
        1,
        0,
        1,
        0,
        1
    ],
    "True_cross_entropy_GradientDescent_RegularizationL2_Random": [
        1,
        0,
        1,
        0,
        0,
        0,
        0,
        0,
        0,
        1,
        0,
        0,
        1,
        1,
        0,
        1,
        0,
        1,
        0,
        1
    ],
    "True_cross_entropy_GradientDescent_RegularizationL2_Zeros": [
        1,
        0,
        1,
        0,
        0,
        0,
        0,
        0,
        1,
        1,
        0,
        0,
        1,
        1,
        0,
        1,
        0,
        1,
        0,
        1
    ],
    "True_cross_entropy_GradientDescent_RegularizationNone_Default": [
        1,
        0,
        1,
        0,
        0,
        0,
        0,
        0,
        1,
        1,
        0,
        0,
        1,
        1,
        0,
        1,
        0,
        1,
        0,
        1
    ],
    "True_cross_entropy_GradientDescent_RegularizationNone_Random": [
        1,
        0,
        1,
        0,
        0,
        0,
        0,
        0,
        0,
        1,
        0,
        0,
        1,
        1,
        0,
        1,
        0,
        1,
        0,
        1
    ],
    "True_cross_entropy_GradientDescent_RegularizationNone_Zeros": [
        1,
        0,
        1,
        0,
        0,
        0,
        0,
        0,
        1,
        1,
        0,
        0,
        1,
        1,
        0,
        1,
        0,
        1,
        0,
        1
    ],
    "True_cross_entropy_Nadam_RegularizationL1_Default": [
        1,
        1,
        1,
        0,
        0,
        0,
        0,
        0,
        0,
        1,
        1,
        0,
        1,
        1,
        0,
        1,
        0,
        1,
        0,
        1
    ],
    "True_cross_entropy_Nadam_RegularizationL1_Random": [
        1,
        0,
        0,
        0,
        0,
        0,
        1,
        1,
        0,
        0,
        0,
        0,
        1,
        0,
        1,
        1,
        1,
        1,
        1,
        1
    ],
    "True_cross_entropy_Nadam_RegularizationL1_Zeros": [
        1,
        1,
        1,
        0,
        0,
        0,
        0,
        0,
        0,
        1,
        1,
        0,
        1,
        1,
        0,
        1,
        0,
        1,
        0,
        1
    ],
    "True_cross_entropy_Nadam_RegularizationL2_Default": [
        1,
        1,
        1,
        0,
        0,
        0,
        0,
        0,
        0,
        1,
        1,
        0,
        1,
        1,
        0,
        1,
        0,
        1,
        0,
        1
    ],
    "True_cross_entropy_Nadam_RegularizationL2_Random": [
        1,
        0,
        0,
        0,
        0,
        0,
        1,
        1,
        0,
        0,
        0,
        0,
        1,
        0,
        1,
        1,
        1,
        1,
        1,
        1
    ],
    "True_cross_entropy_Nadam_RegularizationL2_Zeros": [
        1,
        1,
        1,
        0,
        0,
        0,
        0,
        0,
        0,
        1,
        1,
        0,
        1,
        1,
        0,
        1,
        0,
        1,
        0,
        1
    ],
    "True_cross_entropy_Nadam_RegularizationNone_Default": [
        1,
        1,
        1,
        0,
        0,
        0,
        0,
        0,
        0,
        1,
        1,
        0,
        1,
        1,
        0,
        1,
        0,
        1,
        0,
        1
    ],
    "True_cross_entropy_Nadam_RegularizationNone_Random": [
        1,
        0,
        0,
        0,
        0,
        0,
        1,
        1,
        0,
        0,
        0,
        0,
        1,
        0,
        1,
        1,
        1,
        1,
        1,
        1
    ],
    "True_cross_entropy_Nadam_RegularizationNone_Zeros": [
        1,
        1,
        1,
        0,
        0,
        0,
        0,
        0,
        0,
        1,
        1,
        0,
        1,
        1,
        0,
        1,
        0,
        1,
        0,
        1
    ],
    "True_cross_entropy_RMSprop_RegularizationL1_Default": [
        1,
        1,
        1,
        0,
        0,
        0,
        0,
        0,
        0,
        1,
        1,
        0,
        1,
        1,
        0,
        1,
        0,
        1,
        0,
        1
    ],
    "True_cross_entropy_RMSprop_RegularizationL1_Random": [
        1,
        0,
        0,
        0,
        0,
        0,
        1,
        0,
        0,
        0,
        0,
        0,
        1,
        1,
        1,
        1,
        1,
        1,
        1,
        1
    ],
    "True_cross_entropy_RMSprop_RegularizationL1_Zeros": [
        1,
        1,
        1,
        0,
        0,
        0,
        0,
        0,
        0,
        1,
        1,
        0,
        1,
        1,
        0,
        1,
        0,
        1,
        0,
        1
    ],
    "True_cross_entropy_RMSprop_RegularizationL2_Default": [
        1,
        1,
        1,
        0,
        0,
        0,
        0,
        0,
        0,
        1,
        1,
        0,
        1,
        1,
        0,
        1,
        0,
        1,
        0,
        1
    ],
    "True_cross_entropy_RMSprop_RegularizationL2_Random": [
        1,
        0,
        0,
        0,
        0,
        0,
        1,
        0,
        0,
        0,
        0,
        0,
        1,
        1,
        1,
        1,
        1,
        1,
        1,
        1
    ],
    "True_cross_entropy_RMSprop_RegularizationL2_Zeros": [
        1,
        1,
        1,
        0,
        0,
        0,
        0,
        0,
        0,
        1,
        1,
        0,
        1,
        1,
        0,
        1,
        0,
        1,
        0,
        1
    ],
    "True_cross_entropy_RMSprop_RegularizationNone_Default": [
        1,
        1,
        1,
        0,
        0,
        0,
        0,
        0,
        0,
        1,
        1,
        0,
        1,
        1,
        0,
        1,
        0,
        1,
        0,
        1
    ],
    "True_cross_entropy_RMSprop_RegularizationNone_Random": [
        1,
        0,
        0,
        0,
        0,
        0,
        1,
        0,
        0,
        0,
        0,
        0,
        1,
        1,
        1,
        1,
        1,
        1,
        1,
        1
    ],
    "True_cross_entropy_RMSprop_RegularizationNone_Zeros": [
        1,
        1,
        1,
        0,
        0,
        0,
        0,
        0,
        0,
        1,
        1,
        0,
        1,
        1,
        0,
        1,
        0,
        1,
        0,
        1
    ],
    "True_mean_squared_error_Adam_RegularizationL1_Default": [
        1,
        1,
        1,
        0,
        0,
        0,
        0,
        0,
        0,
        1,
        1,
        0,
        1,
        1,
        0,
        1,
        0,
        1,
        0,
        1
    ],
    "True_mean_squared_error_Adam_RegularizationL1_Random": [
        1,
        1,
        0,
        0,
        0,
        0,
        1,
        0,
        0,
        0,
        0,
        0,
        1,
        1,
        1,
        1,
        1,
        1,
        1,
        1
    ],
    "True_mean_squared_error_Adam_RegularizationL1_Zeros": [
        1,
        1,
        1,
        0,
        0,
        0,
        0,
        0,
        0,
        1,
        1,
        0,
        1,
        1,
        0,
        1,
        0,
        1,
        0,
        1
    ],
    "True_mean_squared_error_Adam_RegularizationL2_Default": [
        1,
        1,
        1,
        0,
        0,
        0,
        0,
        0,
        0,
        1,
        1,
        0,
        1,
        1,
        0,
        1,
        0,
        1,
        0,
        1
    ],
    "True_mean_squared_error_Adam_RegularizationL2_Random": [
        1,
        1,
        0,
        0,
        0,
        0,
        1,
        0,
        0,
        0,
        0,
        0,
        1,
        1,
        1,
        1,
        1,
        1,
        1,
        1
    ],
    "True_mean_squared_error_Adam_RegularizationL2_Zeros": [
        1,
        1,
        1,
        0,
        0,
        0,
        0,
        0,
        0,
        1,
        1,
        0,
        1,
        1,
        0,
        1,
        0,
        1,
        0,
        1
    ],
    "True_mean_squared_error_Adam_RegularizationNone_Default": [
        1,
        1,
        1,
        0,
        0,
        0,
        0,
        0,
        0,
        1,
        1,
        0,
        1,
        1,
        0,
        1,
        0,
        1,
        0,
        1
    ],
    "True_mean_squared_error_Adam_RegularizationNone_Random": [
        1,
        1,
        0,
        0,
        0,
        0,
        1,
        0,
        0,
        0,
        0,
        0,
        1,
        1,
        1,
        1,
        1,
        1,
        1,
        1
    ],
    "True_mean_squared_error_Adam_RegularizationNone_Zeros": [
        1,
        1,
        1,
        0,
        0,
        0,
        0,
        0,
        0,
        1,
        1,
        0,
        1,
        1,
        0,
        1,
        0,
        1,
        0,
        1
    ],
    "True_mean_squared_error_GradientDescent_RegularizationL1_Default": [
        1,
        0,
        1,
        0,
        0,
        0,
        0,
        0,
        1,
        1,
        0,
        0,
        1,
        1,
        0,
        1,
        0,
        1,
        0,
        1
    ],
    "True_mean_squared_error_GradientDescent_RegularizationL1_Random": [
        1,
        1,
        0,
        0,
        0,
        0,
        1,
        0,
        0,
        0,
        0,
        0,
        1,
        1,
        1,
        1,
        1,
        1,
        0,
        1
    ],
    "True_mean_squared_error_GradientDescent_RegularizationL1_Zeros": [
        1,
        0,
        1,
        0,
        0,
        0,
        0,
        0,
        1,
        1,
        0,
        0,
        1,
        1,
        0,
        1,
        0,
        1,
        0,
        1
    ],
    "True_mean_squared_error_GradientDescent_RegularizationL2_Default": [
        1,
        0,
        1,
        0,
        0,
        0,
        0,
        0,
        1,
        1,
        0,
        0,
        1,
        1,
        0,
        1,
        0,
        1,
        0,
        1
    ],
    "True_mean_squared_error_GradientDescent_RegularizationL2_Random": [
        1,
        1,
        0,
        0,
        0,
        0,
        1,
        0,
        0,
        0,
        0,
        0,
        1,
        1,
        1,
        1,
        1,
        1,
        0,
        1
    ],
    "True_mean_squared_error_GradientDescent_RegularizationL2_Zeros": [
        1,
        0,
        1,
        0,
        0,
        0,
        0,
        0,
        1,
        1,
        0,
        0,
        1,
        1,
        0,
        1,
        0,
        1,
        0,
        1
    ],
    "True_mean_squared_error_GradientDescent_RegularizationNone_Default": [
        1,
        0,
        1,
        0,
        0,
        0,
        0,
        0,
        1,
        1,
        0,
        0,
        1,
        1,
        0,
        1,
        0,
        1,
        0,
        1
    ],
    "True_mean_squared_error_GradientDescent_RegularizationNone_Random": [
        1,
        1,
        0,
        0,
        0,
        0,
        1,
        0,
        0,
        0,
        0,
        0,
        1,
        1,
        1,
        1,
        1,
        1,
        0,
        1
    ],
    "True_mean_squared_error_GradientDescent_RegularizationNone_Zeros": [
        1,
        0,
        1,
        0,
        0,
        0,
        0,
        0,
        1,
        1,
        0,
        0,
        1,
        1,
        0,
        1,
        0,
        1,
        0,
        1
    ],
    "True_mean_squared_error_Nadam_RegularizationL1_Default": [
        1,
        1,
        1,
        0,
        0,
        0,
        0,
        0,
        0,
        1,
        1,
        0,
        1,
        1,
        0,
        1,
        0,
        1,
        0,
        1
    ],
    "True_mean_squared_error_Nadam_RegularizationL1_Random": [
        1,
        1,
        0,
        0,
        0,
        0,
        1,
        0,
        0,
        0,
        0,
        0,
        1,
        1,
        1,
        1,
        1,
        1,
        1,
        1
    ],
    "True_mean_squared_error_Nadam_RegularizationL1_Zeros": [
        1,
        1,
        1,
        0,
        0,
        0,
        0,
        0,
        0,
        1,
        1,
        0,
        1,
        1,
        0,
        1,
        0,
        1,
        0,
        1
    ],
    "True_mean_squared_error_Nadam_RegularizationL2_Default": [
        1,
        1,
        1,
        0,
        0,
        0,
        0,
        0,
        0,
        1,
        1,
        0,
        1,
        1,
        0,
        1,
        0,
        1,
        0,
        1
    ],
    "True_mean_squared_error_Nadam_RegularizationL2_Random": [
        1,
        1,
        0,
        0,
        0,
        0,
        1,
        0,
        0,
        0,
        0,
        0,
        1,
        1,
        1,
        1,
        1,
        1,
        1,
        1
    ],
    "True_mean_squared_error_Nadam_RegularizationL2_Zeros": [
        1,
        1,
        1,
        0,
        0,
        0,
        0,
        0,
        0,
        1,
        1,
        0,
        1,
        1,
        0,
        1,
        0,
        1,
        0,
        1
    ],
    "True_mean_squared_error_Nadam_RegularizationNone_Default": [
        1,
        1,
        1,
        0,
        0,
        0,
        0,
        0,
        0,
        1,
        1,
        0,
        1,
        1,
        0,
        1,
        0,
        1,
        0,
        1
    ],
    "True_mean_squared_error_Nadam_RegularizationNone_Random": [
        1,
        1,
        0,
        0,
        0,
        0,
        1,
        0,
        0,
        0,
        0,
        0,
        1,
        1,
        1,
        1,
        1,
        1,
        1,
        1
    ],
    "True_mean_squared_error_Nadam_RegularizationNone_Zeros": [
        1,
        1,
        1,
        0,
        0,
        0,
        0,
        0,
        0,
        1,
        1,
        0,
        1,
        1,
        0,
        1,
        0,
        1,
        0,
        1
    ],
    "True_mean_squared_error_RMSprop_RegularizationL1_Default": [
        1,
        1,
        1,
        0,
        0,
        0,
        0,
        0,
        1,
        1,
        0,
        0,
        1,
        1,
        0,
        1,
        0,
        1,
        0,
        1
    ],
    "True_mean_squared_error_RMSprop_RegularizationL1_Random": [
        1,
        1,
        0,
        0,
        0,
        0,
        1,
        0,
        0,
        0,
        0,
        0,
        1,
        1,
        1,
        1,
        1,
        1,
        1,
        1
    ],
    "True_mean_squared_error_RMSprop_RegularizationL1_Zeros": [
        1,
        1,
        1,
        0,
        0,
        0,
        0,
        0,
        1,
        1,
        0,
        0,
        1,
        1,
        0,
        1,
        0,
        1,
        0,
        1
    ],
    "True_mean_squared_error_RMSprop_RegularizationL2_Default": [
        1,
        1,
        1,
        0,
        0,
        0,
        0,
        0,
        0,
        1,
        0,
        0,
        1,
        1,
        0,
        1,
        0,
        1,
        0,
        1
    ],
    "True_mean_squared_error_RMSprop_RegularizationL2_Random": [
        1,
        1,
        0,
        0,
        0,
        0,
        1,
        0,
        0,
        0,
        0,
        0,
        1,
        1,
        1,
        1,
        1,
        1,
        1,
        1
    ],
    "True_mean_squared_error_RMSprop_RegularizationL2_Zeros": [
        1,
        1,
        1,
        0,
        0,
        0,
        0,
        0,
        0,
        1,
        0,
        0,
        1,
        1,
        0,
        1,
        0,
        1,
        0,
        1
    ],
    "True_mean_squared_error_RMSprop_RegularizationNone_Default": [
        1,
        1,
        1,
        0,
        0,
        0,
        0,
        0,
        0,
        1,
        0,
        0,
        1,
        1,
        0,
        1,
        0,
        1,
        0,
        1
    ],
    "True_mean_squared_error_RMSprop_RegularizationNone_Random": [
        1,
        1,
        0,
        0,
        0,
        0,
        1,
        0,
        0,
        0,
        0,
        0,
        1,
        1,
        1,
        1,
        1,
        1,
        1,
        1
    ],
    "True_mean_squared_error_RMSprop_RegularizationNone_Zeros": [
        1,
        1,
        1,
        0,
        0,
        0,
        0,
        0,
        0,
        1,
        0,
        0,
        1,
        1,
        0,
        1,
        0,
        1,
        0,
        1
    ],
    "True_scaled_mean_squared_error_Adam_RegularizationL1_Default": [
        1,
        1,
        1,
        0,
        0,
        0,
        0,
        0,
        0,
        1,
        1,
        0,
        1,
        1,
        0,
        1,
        0,
        1,
        0,
        1
    ],
    "True_scaled_mean_squared_error_Adam_RegularizationL1_Random": [
        1,
        1,
        0,
        0,
        0,
        0,
        1,
        1,
        0,
        0,
        0,
        0,
        1,
        1,
        1,
        1,
        1,
        1,
        0,
        1
    ],
    "True_scaled_mean_squared_error_Adam_RegularizationL1_Zeros": [
        1,
        1,
        1,
        0,
        0,
        0,
        0,
        0,
        0,
        1,
        1,
        0,
        1,
        1,
        0,
        1,
        0,
        1,
        0,
        1
    ],
    "True_scaled_mean_squared_error_Adam_RegularizationL2_Default": [
        1,
        1,
        1,
        0,
        0,
        0,
        0,
        0,
        0,
        1,
        1,
        0,
        1,
        1,
        0,
        1,
        0,
        1,
        0,
        1
    ],
    "True_scaled_mean_squared_error_Adam_RegularizationL2_Random": [
        1,
        1,
        0,
        0,
        0,
        0,
        1,
        1,
        0,
        0,
        0,
        0,
        1,
        1,
        1,
        1,
        1,
        1,
        0,
        1
    ],
    "True_scaled_mean_squared_error_Adam_RegularizationL2_Zeros": [
        1,
        1,
        1,
        0,
        0,
        0,
        0,
        0,
        0,
        1,
        1,
        0,
        1,
        1,
        0,
        1,
        0,
        1,
        0,
        1
    ],
    "True_scaled_mean_squared_error_Adam_RegularizationNone_Default": [
        1,
        1,
        1,
        0,
        0,
        0,
        0,
        0,
        0,
        1,
        1,
        0,
        1,
        1,
        0,
        1,
        0,
        1,
        0,
        1
    ],
    "True_scaled_mean_squared_error_Adam_RegularizationNone_Random": [
        1,
        1,
        0,
        0,
        0,
        0,
        1,
        1,
        0,
        0,
        0,
        0,
        1,
        1,
        1,
        1,
        1,
        1,
        0,
        1
    ],
    "True_scaled_mean_squared_error_Adam_RegularizationNone_Zeros": [
        1,
        1,
        1,
        0,
        0,
        0,
        0,
        0,
        0,
        1,
        1,
        0,
        1,
        1,
        0,
        1,
        0,
        1,
        0,
        1
    ],
    "True_scaled_mean_squared_error_GradientDescent_RegularizationL1_Default": [
        1,
        0,
        1,
        0,
        0,
        0,
        0,
        0,
        1,
        1,
        0,
        0,
        1,
        1,
        0,
        1,
        0,
        1,
        0,
        1
    ],
    "True_scaled_mean_squared_error_GradientDescent_RegularizationL1_Random": [
        1,
        1,
        0,
        0,
        0,
        0,
        1,
        0,
        0,
        0,
        0,
        0,
        1,
        1,
        0,
        1,
        0,
        1,
        0,
        1
    ],
    "True_scaled_mean_squared_error_GradientDescent_RegularizationL1_Zeros": [
        1,
        0,
        1,
        0,
        0,
        0,
        0,
        0,
        1,
        1,
        0,
        0,
        1,
        1,
        0,
        1,
        0,
        1,
        0,
        1
    ],
    "True_scaled_mean_squared_error_GradientDescent_RegularizationL2_Default": [
        1,
        0,
        1,
        0,
        0,
        0,
        0,
        0,
        1,
        1,
        0,
        0,
        1,
        1,
        0,
        1,
        0,
        1,
        0,
        1
    ],
    "True_scaled_mean_squared_error_GradientDescent_RegularizationL2_Random": [
        1,
        1,
        0,
        0,
        0,
        0,
        1,
        0,
        0,
        0,
        0,
        0,
        1,
        1,
        0,
        1,
        0,
        1,
        0,
        1
    ],
    "True_scaled_mean_squared_error_GradientDescent_RegularizationL2_Zeros": [
        1,
        0,
        1,
        0,
        0,
        0,
        0,
        0,
        1,
        1,
        0,
        0,
        1,
        1,
        0,
        1,
        0,
        1,
        0,
        1
    ],
    "True_scaled_mean_squared_error_GradientDescent_RegularizationNone_Default": [
        1,
        0,
        1,
        0,
        0,
        0,
        0,
        0,
        1,
        1,
        0,
        0,
        1,
        1,
        0,
        1,
        0,
        1,
        0,
        1
    ],
    "True_scaled_mean_squared_error_GradientDescent_RegularizationNone_Random": [
        1,
        1,
        0,
        0,
        0,
        0,
        1,
        0,
        0,
        0,
        0,
        0,
        1,
        1,
        0,
        1,
        0,
        1,
        0,
        1
    ],
    "True_scaled_mean_squared_error_GradientDescent_RegularizationNone_Zeros": [
        1,
        0,
        1,
        0,
        0,
        0,
        0,
        0,
        1,
        1,
        0,
        0,
        1,
        1,
        0,
        1,
        0,
        1,
        0,
        1
    ],
    "True_scaled_mean_squared_error_Nadam_RegularizationL1_Default": [
        1,
        1,
        1,
        0,
        0,
        0,
        0,
        0,
        0,
        1,
        1,
        0,
        1,
        1,
        0,
        1,
        0,
        1,
        0,
        1
    ],
    "True_scaled_mean_squared_error_Nadam_RegularizationL1_Random": [
        1,
        1,
        0,
        0,
        0,
        0,
        1,
        1,
        0,
        0,
        0,
        0,
        1,
        1,
        1,
        1,
        1,
        1,
        0,
        1
    ],
    "True_scaled_mean_squared_error_Nadam_RegularizationL1_Zeros": [
        1,
        1,
        1,
        0,
        0,
        0,
        0,
        0,
        0,
        1,
        1,
        0,
        1,
        1,
        0,
        1,
        0,
        1,
        0,
        1
    ],
    "True_scaled_mean_squared_error_Nadam_RegularizationL2_Default": [
        1,
        1,
        1,
        0,
        0,
        0,
        0,
        0,
        0,
        1,
        1,
        0,
        1,
        1,
        0,
        1,
        0,
        1,
        0,
        1
    ],
    "True_scaled_mean_squared_error_Nadam_RegularizationL2_Random": [
        1,
        1,
        0,
        0,
        0,
        0,
        1,
        1,
        0,
        0,
        0,
        0,
        1,
        1,
        1,
        1,
        1,
        1,
        0,
        1
    ],
    "True_scaled_mean_squared_error_Nadam_RegularizationL2_Zeros": [
        1,
        1,
        1,
        0,
        0,
        0,
        0,
        0,
        0,
        1,
        1,
        0,
        1,
        1,
        0,
        1,
        0,
        1,
        0,
        1
    ],
    "True_scaled_mean_squared_error_Nadam_RegularizationNone_Default": [
        1,
        1,
        1,
        0,
        0,
        0,
        0,
        0,
        0,
        1,
        1,
        0,
        1,
        1,
        0,
        1,
        0,
        1,
        0,
        1
    ],
    "True_scaled_mean_squared_error_Nadam_RegularizationNone_Random": [
        1,
        1,
        0,
        0,
        0,
        0,
        1,
        1,
        0,
        0,
        0,
        0,
        1,
        1,
        1,
        1,
        1,
        1,
        0,
        1
    ],
    "True_scaled_mean_squared_error_Nadam_RegularizationNone_Zeros": [
        1,
        1,
        1,
        0,
        0,
        0,
        0,
        0,
        0,
        1,
        1,
        0,
        1,
        1,
        0,
        1,
        0,
        1,
        0,
        1
    ],
    "True_scaled_mean_squared_error_RMSprop_RegularizationL1_Default": [
        1,
        1,
        1,
        0,
        0,
        0,
        0,
        0,
        1,
        1,
        0,
        0,
        1,
        1,
        0,
        1,
        0,
        1,
        0,
        1
    ],
    "True_scaled_mean_squared_error_RMSprop_RegularizationL1_Random": [
        1,
        1,
        0,
        0,
        0,
        0,
        1,
        0,
        0,
        0,
        0,
        0,
        1,
        1,
        1,
        1,
        1,
        1,
        0,
        1
    ],
    "True_scaled_mean_squared_error_RMSprop_RegularizationL1_Zeros": [
        1,
        1,
        1,
        0,
        0,
        0,
        0,
        0,
        1,
        1,
        0,
        0,
        1,
        1,
        0,
        1,
        0,
        1,
        0,
        1
    ],
    "True_scaled_mean_squared_error_RMSprop_RegularizationL2_Default": [
        1,
        1,
        1,
        0,
        0,
        0,
        0,
        0,
        1,
        1,
        1,
        0,
        1,
        1,
        0,
        1,
        0,
        1,
        0,
        1
    ],
    "True_scaled_mean_squared_error_RMSprop_RegularizationL2_Random": [
        1,
        1,
        0,
        0,
        0,
        0,
        1,
        0,
        0,
        0,
        0,
        0,
        1,
        1,
        1,
        1,
        1,
        1,
        0,
        1
    ],
    "True_scaled_mean_squared_error_RMSprop_RegularizationL2_Zeros": [
        1,
        1,
        1,
        0,
        0,
        0,
        0,
        0,
        1,
        1,
        1,
        0,
        1,
        1,
        0,
        1,
        0,
        1,
        0,
        1
    ],
    "True_scaled_mean_squared_error_RMSprop_RegularizationNone_Default": [
        1,
        1,
        1,
        0,
        0,
        0,
        0,
        0,
        1,
        1,
        1,
        0,
        1,
        1,
        0,
        1,
        0,
        1,
        0,
        1
    ],
    "True_scaled_mean_squared_error_RMSprop_RegularizationNone_Random": [
        1,
        1,
        0,
        0,
        0,
        0,
        1,
        0,
        0,
        0,
        0,
        0,
        1,
        1,
        1,
        1,
        1,
        1,
        0,
        1
    ],
    "True_scaled_mean_squared_error_RMSprop_RegularizationNone_Zeros": [
        1,
        1,
        1,
        0,
        0,
        0,
        0,
        0,
        1,
        1,
        1,
        0,
        1,
        1,
        0,
        1,
        0,
        1,
        0,
        1
    ]
}